{
  "db": {
    "host": "127.0.0.1",
    "user": "postgres",
    "password": "postgres",
    "database": "epi_puma_covid19",
    "waitForConnections": true,
    "connectionLimit": 2,
    "queueLimit": 0
  },
  "server": {
    "port": 4002
  }
}
